<?xml version="1.0" encoding="UTF-8"?>
<svg width="18px" height="17px" viewBox="0 0 18 17" version="1.1" xmlns="http://www.w3.org/2000/svg" xmlns:xlink="http://www.w3.org/1999/xlink">
    <!-- Generator: Sketch 51.3 (57544) - http://www.bohemiancoding.com/sketch -->
    <title>Group</title>
    <desc>Created with Sketch.</desc>
    <defs></defs>
    <g id="02.-Login/Register" stroke="none" stroke-width="1" fill="none" fill-rule="evenodd">
        <g id="1402_login" transform="translate(-18.000000, -43.000000)" stroke="#000000" stroke-width="2">
            <g id="Group-3">
                <g id="Group" transform="translate(20.000000, 44.000000)">
                    <polyline id="Stroke-47" transform="translate(4.000000, 7.500000) rotate(-270.000000) translate(-4.000000, -7.500000) " points="-3.5 3.5 4 11.5 11.5 3.5"></polyline>
                    <path d="M0.470588235,7.5 L16,7.5" id="Line-4" fill-rule="nonzero"></path>
                </g>
            </g>
        </g>
    </g>
</svg>