<?xml version="1.0" encoding="UTF-8"?>
<svg width="46px" height="44px" viewBox="0 0 46 44" version="1.1" xmlns="http://www.w3.org/2000/svg" xmlns:xlink="http://www.w3.org/1999/xlink">
    <!-- Generator: Sketch 51.3 (57544) - http://www.bohemiancoding.com/sketch -->
    <title>Component/Icon/Babyseat</title>
    <desc>Created with Sketch.</desc>
    <defs></defs>
    <g id="Symbols" stroke="none" stroke-width="1" fill="none" fill-rule="evenodd">
        <g id="Component/Addon/mobile" transform="translate(-57.000000, -40.000000)">
            <g id="Component/Icon/Add-hour" transform="translate(57.000000, 37.000000)">
                <g id="Addhour" transform="translate(1.000000, 4.000000)">
                    <path d="M41,20.5 C41,16.2449621 39.4551583,11.443369 37.2358346,8.167313 M32.56529,3.92479249 C29.1801733,1.45649602 25.0101781,0 20.5,0 C9.17816263,0 0,9.17816263 0,20.5 C0,25.7544955 1.97689666,30.547262 5.22749653,34.1751061 M10.3566567,39.3244436 C13.2291384,40.8569306 17.0169311,42 20.5,42 C24.5118589,42 28.7469457,40.5731567 31.9074958,38.5812853" id="Shape" stroke="#2246A8" stroke-width="2" stroke-linecap="round"></path>
                    <circle id="Oval" fill="#F27C21" cx="7" cy="37" r="1"></circle>
                    <circle id="Oval-Copy" fill="#F27C21" cx="35" cy="6" r="1"></circle>
                    <path d="M38.2117462,25.2149896 L38.2117462,35.3256306" id="Path-4" stroke="#F27C21" stroke-width="2" stroke-linecap="round"></path>
                    <path d="M43.5635964,30.2703101 L32.859896,30.2703101 L43.5635964,30.2703101 Z" id="Path-4" stroke="#F27C21" stroke-width="2" stroke-linecap="round" stroke-linejoin="round"></path>
                    <path d="M22.1497941,21.933439 L22.1497941,11.4690538 C22.1497941,10.6577178 21.4920763,10 20.6807403,10 L20.6807403,10 C19.8694042,10 19.2116864,10.6577178 19.2116864,11.4690538 L19.2116864,20.6938428 L13.0280289,27.1364787 C12.45153,27.7371219 12.4454647,28.6837505 13.0142195,29.2917318 L13.0142195,29.2917318 C13.5455862,29.8597464 14.4368108,29.8894554 15.0048254,29.3580886 C15.0228956,29.3411843 15.0405171,29.3238067 15.0576717,29.3059739 L22.1497941,21.933439 Z" id="Path-7" stroke="#F27C21" stroke-width="2"></path>
                    <g id="Group" transform="translate(20.500000, 20.500000) rotate(90.000000) translate(-20.500000, -20.500000) translate(19.500000, 3.500000)" stroke="#F27C21" stroke-linecap="round" stroke-width="2">
                        <path d="M0.533167616,0.92718556 L0.533167616,3.11993947" id="Path-8"></path>
                        <path d="M0.533167616,30.9271856 L0.533167616,33.1199395" id="Path-8"></path>
                    </g>
                    <g id="Group" transform="translate(20.000000, 21.000000) rotate(180.000000) translate(-20.000000, -21.000000) translate(19.000000, 3.000000)" stroke="#F27C21" stroke-linecap="round" stroke-width="2">
                        <path d="M0.533167616,0.92718556 L0.533167616,3.11993947" id="Path-8"></path>
                        <path d="M0.533167616,32.9271856 L0.533167616,35.1199395" id="Path-8"></path>
                    </g>
                </g>
            </g>
        </g>
    </g>
</svg>