<?xml version="1.0" encoding="UTF-8"?>
<svg width="24px" height="13px" viewBox="0 0 24 13" version="1.1" xmlns="http://www.w3.org/2000/svg" xmlns:xlink="http://www.w3.org/1999/xlink">
    <!-- Generator: Sketch 51.3 (57544) - http://www.bohemiancoding.com/sketch -->
    <title>Icon/System/login Copy</title>
    <desc>Created with Sketch.</desc>
    <defs></defs>
    <g id="Car-Rental" stroke="none" stroke-width="1" fill="none" fill-rule="evenodd" stroke-linecap="round" stroke-linejoin="round">
        <g id="129_Trac_Car-Rental" transform="translate(-331.000000, -240.000000)" stroke="#231F20" stroke-width="1.14782609">
            <g id="Group-8" transform="translate(20.000000, 208.000000)">
                <g id="Icon/System/login-Copy" transform="translate(312.000000, 33.000000)">
                    <path d="M9.21349821,0.150107194 C3.98788691,1.01779195 0,5.35135135 0,5.35135135 C0,5.35135135 4.92472973,10.7027027 11,10.7027027 C17.0752703,10.7027027 22,5.35135135 22,5.35135135 C22,5.35135135 17.0752703,0 11,0 L11,1.78378378 C9.02981081,1.78378378 7.43243243,3.38086486 7.43243243,5.35135135 C7.43243243,7.32154054 9.02981081,8.91891892 11,8.91891892 C12.9701892,8.91891892 14.5675676,7.32154054 14.5675676,5.35135135 C14.5675676,4.03753658 13.8575746,2.8897057 12.8002218,2.27049189" id="Stroke-1"></path>
                </g>
            </g>
        </g>
    </g>
</svg>