<?xml version="1.0" encoding="UTF-8"?>
<svg width="42px" height="40px" viewBox="0 0 42 40" version="1.1" xmlns="http://www.w3.org/2000/svg" xmlns:xlink="http://www.w3.org/1999/xlink">
    <!-- Generator: Sketch 51.3 (57544) - http://www.bohemiancoding.com/sketch -->
    <title>Component/Icon/Babyseat</title>
    <desc>Created with Sketch.</desc>
    <defs></defs>
    <g id="Symbols" stroke="none" stroke-width="1" fill="none" fill-rule="evenodd">
        <g id="Component/Addon/mobileact" transform="translate(-35.000000, -38.000000)">
            <g id="Component/Icon/Food" transform="translate(33.000000, 34.000000)">
                <g id="Group-2" stroke-width="1" fill-rule="evenodd" transform="translate(14.000000, 23.000000)" stroke-linecap="round">
                    <path d="M24.2729536,2.60458025 C25.9571299,4.23003617 27,6.48271068 27,8.97219457 M2.84217094e-13,8.97219457 C2.83531928e-13,4.01698833 4.13175943,2.13162821e-14 9.22854298,2.13162821e-14 L17.771457,2.13162821e-14 C18.6474248,2.13162821e-14 19.4948875,0.118654569 20.2977688,0.340333915" id="Shape" stroke="#2246A8" stroke-width="2"></path>
                    <path d="M22.2576624,1.30787403 C22.3438338,1.35135096 22.4292106,1.39611027 22.5137662,1.44212597" id="Path" stroke="#F27C21" stroke-width="2"></path>
                </g>
                <polyline id="Shape" stroke="#2246A8" stroke-width="2" stroke-linecap="round" points="41 39 41 43 14 43 14 39"></polyline>
                <polyline id="Path" stroke="#F27C21" stroke-width="2" stroke-linecap="round" points="11 43 6.92 43 5 18 21 18 20.85437 19.8962238"></polyline>
                <g id="Group" stroke-width="1" fill-rule="evenodd" transform="translate(27.500000, 35.500000) rotate(180.000000) translate(-27.500000, -35.500000) translate(12.000000, 32.000000)" stroke-linecap="round">
                    <path d="M23.8011981,0.6 L29.4878049,0.6 C30.3229672,0.6 31,1.3163444 31,2.2 L31,4.98517043 C31,5.86882603 30.3229672,6.58517043 29.4878049,6.58517043 L1.51219512,6.58517043 C0.677032817,6.58517043 3.35774768e-16,5.86882603 1.67887384e-16,4.98517043 L0,2.2 C-1.67887384e-16,1.3163444 0.677032817,0.6 1.51219512,0.6 L18.8709024,0.6" id="Shape" stroke="#F27C21" stroke-width="2"></path>
                    <path d="M21.1418092,0.6 L21.5753788,0.6" id="Path" stroke="#2246A8" stroke-width="2"></path>
                </g>
                <polygon id="Rectangle-Copy" stroke="#F27C21" stroke-width="2" points="12.6078952 5 12.6078952 13.1052695 12.2026317 13.1052695 12.2026317 5"></polygon>
                <rect id="Rectangle" stroke="#2246A8" stroke-width="2" x="3" y="14" width="19" height="4"></rect>
                <path d="M22.4246212,28.4 L22.8581908,28.4" id="Path" stroke="#2246A8" stroke-width="2" stroke-linecap="round"></path>
                <path d="M27.4246212,27.4 L27.8581908,27.4" id="Path-Copy" stroke="#2246A8" stroke-width="2" stroke-linecap="round"></path>
                <path d="M31.4246212,28.4 L31.8581908,28.4" id="Path-Copy-2" stroke="#2246A8" stroke-width="2" stroke-linecap="round"></path>
            </g>
        </g>
    </g>
</svg>