<?xml version="1.0" encoding="UTF-8"?>
<svg width="27px" height="21px" viewBox="0 0 27 21" version="1.1" xmlns="http://www.w3.org/2000/svg" xmlns:xlink="http://www.w3.org/1999/xlink">
    <!-- Generator: Sketch 52.6 (67491) - http://www.bohemiancoding.com/sketch -->
    <title>Group 10</title>
    <desc>Created with Sketch.</desc>
    <g id="07.-Dashboard" stroke="none" stroke-width="1" fill="none" fill-rule="evenodd">
        <g id="2601_dashboard_profile" transform="translate(-24.000000, -318.000000)" stroke="#21419A">
            <g id="Group-10" transform="translate(25.000000, 319.000000)">
                <path d="M5,13 L5,12.6363636 C5,10.6280555 6.70558191,9 8.80952381,9 L9.19047619,9 C11.2944181,9 13,10.6280555 13,12.6363636 L13,13" id="Shape-Copy" stroke-linecap="round"></path>
                <path d="M9,5 L9,5 C10.1045695,5 11,5.8954305 11,7 L11,7 C11,8.1045695 10.1045695,9 9,9 L9,9 C7.8954305,9 7,8.1045695 7,7 L7,7 C7,5.8954305 7.8954305,5 9,5 Z" id="Rectangle-Copy-16"></path>
                <path d="M3,0 L22,0 C23.6568542,-3.04359188e-16 25,1.34314575 25,3 L25,16 C25,17.6568542 23.6568542,19 22,19 L3,19 C1.34314575,19 2.02906125e-16,17.6568542 0,16 L0,3 C-2.02906125e-16,1.34314575 1.34314575,3.04359188e-16 3,0 Z" id="Rectangle-Copy-6"></path>
                <path d="M21.390625,9.5 L16,9.5" id="Line-Copy" stroke-linecap="round" stroke-linejoin="round"></path>
                <path d="M21.390625,13.5 L16,13.5" id="Line-Copy-2" stroke-linecap="round" stroke-linejoin="round"></path>
            </g>
        </g>
    </g>
</svg>