<?xml version="1.0" encoding="UTF-8"?>
<svg width="22px" height="19px" viewBox="0 0 22 19" version="1.1" xmlns="http://www.w3.org/2000/svg" xmlns:xlink="http://www.w3.org/1999/xlink">
    <!-- Generator: Sketch 52.6 (67491) - http://www.bohemiancoding.com/sketch -->
    <title>Group 9</title>
    <desc>Created with Sketch.</desc>
    <g id="07.-Dashboard" stroke="none" stroke-width="1" fill="none" fill-rule="evenodd">
        <g id="2701_profile_more" transform="translate(-27.000000, -219.000000)" stroke="#21419A">
            <g id="Group-9" transform="translate(28.000000, 220.000000)">
                <path d="M1,6 L19,6 L19,14 C19,15.6568542 17.6568542,17 16,17 L4,17 C2.34314575,17 1,15.6568542 1,14 L1,6 Z" id="Rectangle-Copy-7"></path>
                <path d="M2,0 L18,0 C19.1045695,-2.02906125e-16 20,0.8954305 20,2 L20,6 L0,6 L0,2 C-1.3527075e-16,0.8954305 0.8954305,2.02906125e-16 2,0 Z" id="Rectangle-Copy-8"></path>
            </g>
        </g>
    </g>
</svg>