<?xml version="1.0" encoding="UTF-8"?>
<svg width="20px" height="21px" viewBox="0 0 20 21" version="1.1" xmlns="http://www.w3.org/2000/svg" xmlns:xlink="http://www.w3.org/1999/xlink">
    <!-- Generator: Sketch 52.3 (67297) - http://www.bohemiancoding.com/sketch -->
    <title>Trash</title>
    <desc>Created with Sketch.</desc>
    <g id="Car-Rental" stroke="none" stroke-width="1" fill="none" fill-rule="evenodd">
        <g id="116_Trac_Car-Rental" transform="translate(-336.000000, -43.000000)" stroke="#FFFFFF">
            <g id="Trash" transform="translate(337.000000, 44.000000)">
                <path d="M16.5904043,2.69581304 L16.0034478,15.6088565 C16.0034478,17.5540304 14.4268826,19.1305957 12.4817087,19.1305957 L5.43823043,19.1305957 C3.49305652,19.1305957 1.9164913,17.5540304 1.9164913,15.6088565 L1.32953478,2.69581304" id="Stroke-62"></path>
                <path d="M0.155621739,2.69581304 L17.7643174,2.69581304" id="Stroke-64" stroke-linecap="round"></path>
                <path d="M6.02518696,2.69581304 L6.02518696,1.57237826 C6.02518696,1.11376957 6.35192609,0.706813043 6.82696957,0.5949 C7.38731739,0.463421739 8.07366522,0.356986957 8.85862174,0.348378261 C9.71596957,0.339378261 10.462187,0.449334783 11.0616652,0.587856522 C11.5488391,0.700552174 11.8947522,1.10281304 11.8947522,1.57237826 L11.8947522,2.69581304" id="Stroke-66"></path>
                <path d="M5.43823043,5.63059565 L6.02518696,16.195813" id="Stroke-68" stroke-linecap="round"></path>
                <path d="M12.4817087,5.63059565 L11.8947522,16.195813" id="Stroke-70" stroke-linecap="round"></path>
                <path d="M8.95996957,5.63059565 L8.95996957,16.195813" id="Stroke-72" stroke-linecap="round"></path>
            </g>
        </g>
    </g>
</svg>