<?xml version="1.0" encoding="UTF-8"?>
<svg width="75px" height="38px" viewBox="0 0 75 38" version="1.1" xmlns="http://www.w3.org/2000/svg" xmlns:xlink="http://www.w3.org/1999/xlink">
    <!-- Generator: Sketch 51.3 (57544) - http://www.bohemiancoding.com/sketch -->
    <title>Group 32</title>
    <desc>Created with Sketch.</desc>
    <defs></defs>
    <g id="Landing-" stroke="none" stroke-width="1" fill="none" fill-rule="evenodd">
        <g id="102_Dashboard" transform="translate(-20.000000, -32.000000)">
            <g id="Group-32" transform="translate(20.000000, 32.000000)">
                <path d="M26.9136154,10.0310936 C34.1510192,4.78898835 45.0496731,2.7865456 51.7249615,5.04634472 C56.4073654,6.63088469 59.0063077,10.4670277 56.8379423,16.0797879 C56.7807308,16.2268349 56.8284231,16.3588397 56.9829423,16.180262 C70.2217885,-1.47347851 41.6285192,-6.29392045 26.7782308,9.84730896 C26.5923654,10.0498963 26.6442885,10.2269313 26.9136154,10.0310936" id="Fill-1" fill="#FFFFFF"></path>
                <path d="M74.9489423,12.3959373 C71.4435577,11.2360498 66.9513462,11.2585167 63.9175962,12.9150856 C62.7553846,17.4152061 54.6516346,24.2493724 41.9883654,23.5546356 C41.8454808,23.5471145 41.80625,23.5111483 41.8018269,23.4728678 C41.7972115,23.4345874 41.8272115,23.3933178 41.9711538,23.3753829 C43.1447115,23.2117509 44.4183654,22.9694367 45.4259615,22.7218192 L48.7878846,16.3513572 L48.8830769,16.3513572 L49.5825962,21.3068895 C51.7204808,20.6743463 54.0620192,19.3861181 55.8208654,17.3214817 L54.9611538,12.0808228 L44.5991346,12.0808228 L36.9006731,26.2818996 C36.8124038,25.2142901 36.5728846,24.4729803 36.0298077,23.8435227 C35.4775,23.2013371 34.6736538,22.7563391 33.65875,22.5912607 L33.6697115,22.5372632 C36.4753846,21.9685528 38.7604808,20.2174881 39.2801923,17.2253467 C40.1271154,12.3419397 35.2113462,12.0530526 31.8347115,12.0808228 L1.11028846,12.0808228 L0,17.8864315 L6.62980769,17.8864315 L3.97365385,31.7399952 L11.4944231,31.7399952 L14.1625,17.8878779 L19.5006731,17.8864315 L16.8392308,31.7430808 L24.3734615,31.7399952 L25.6575,25.0694608 L27.3625962,25.0619397 C28.8872115,25.0619397 29.5868269,25.5939124 29.4744231,27.7973998 L29.2401923,31.7399952 L41.4299038,31.7399952 L43.4658654,27.4822853 L49.8152885,27.4822853 L50.2913462,31.7399952 L58.1831731,31.7399952 L57.7599038,29.1403969 C61.5865385,33.119055 67.8333654,32.1760257 71.4540385,31.2921045 L72.4554808,26.0747802 C70.8003846,26.521996 69.4730769,26.8603487 68.1888462,26.8603487 C65.9790385,26.8603487 63.6924038,25.9330366 63.6924038,22.9191997 C63.6924038,19.3388702 66.5656731,16.7730205 70.0388462,16.7730205 C71.1728846,16.7730205 72.75,17.100863 73.9584615,17.4512688 L74.9489423,12.3959373 Z M26.9634615,16.4796979 L29.0545192,16.4781551 C29.4469231,16.4690912 29.7890385,16.4856762 30.0834615,16.5283921 C32.4653846,16.8712768 31.8984615,19.7785649 30.1199038,20.3998264 C29.6241346,20.5738722 28.9508654,20.6668252 28.0275,20.6699108 L26.1579808,20.6705858 L26.9634615,16.4796979 Z" id="Fill-3" fill="#FFFFFF"></path>
                <path d="M40.9043269,37.8052455 L40.9043269,36.3759486 C40.9043269,36.0728871 40.7844231,35.8327907 40.4230769,35.8327907 C40.1161538,35.8327907 39.8118269,36.0804082 39.8118269,36.6175878 L39.8118269,37.8052455 L39.5316346,37.8052455 L39.5316346,36.3759486 C39.5316346,36.0728871 39.4117308,35.8327907 39.0496154,35.8327907 C38.7426923,35.8327907 38.4400962,36.0804082 38.4400962,36.6175878 L38.4400962,37.8052455 L38.1589423,37.8052455 L38.1589423,36.1606332 C38.1589423,35.9970976 38.1589423,35.8282587 38.1403846,35.6557557 L38.4125,35.6557557 L38.4125,36.0181181 L38.4213462,36.0225536 C38.5107692,35.8748317 38.6445192,35.6047473 39.1315385,35.6047473 C39.3307692,35.6047473 39.6608654,35.6849723 39.7315385,36.0600627 L39.74125,36.0600627 C39.8438462,35.8072382 40.1101923,35.6047473 40.4672115,35.6047473 C40.9273077,35.6047473 41.1861538,35.9078088 41.1861538,36.3249401 L41.1861538,37.8052455 L40.9043269,37.8052455 Z" id="Fill-5" fill="#FFFFFF"></path>
                <path d="M43.2569038,36.5785167 C43.2569038,36.2034263 43.0978654,35.8327714 42.6785385,35.8327714 C42.2643077,35.8327714 42.0098846,36.2251217 42.0098846,36.5785167 L43.2569038,36.5785167 Z M43.3968077,37.7385006 C43.2003654,37.8141937 42.9452692,37.8562346 42.7370962,37.8562346 C41.9838269,37.8562346 41.7029615,37.3745954 41.7029615,36.7300956 C41.7029615,36.0728678 42.0873846,35.604728 42.6608462,35.604728 C43.3030577,35.604728 43.5661346,36.0938883 43.5661346,36.6708911 L43.5661346,36.8066565 L42.0098846,36.8066565 C42.0098846,37.2619719 42.2687308,37.6281912 42.7586346,37.6281912 C42.9630577,37.6281912 43.2621923,37.5486412 43.3968077,37.4684162 L43.3968077,37.7385006 Z" id="Fill-7" fill="#FFFFFF"></path>
                <path d="M46.8461923,37.8052455 L46.8461923,36.3759486 C46.8461923,36.0728871 46.7264808,35.8327907 46.3659038,35.8327907 C46.0580192,35.8327907 45.7546538,36.0804082 45.7546538,36.6175878 L45.7546538,37.8052455 L45.4736923,37.8052455 L45.4736923,36.3759486 C45.4736923,36.0728871 45.3539808,35.8327907 44.9918654,35.8327907 C44.6845577,35.8327907 44.3811923,36.0804082 44.3811923,36.6175878 L44.3811923,37.8052455 L44.1008077,37.8052455 L44.1008077,36.1606332 C44.1008077,35.9970976 44.1008077,35.8282587 44.0837885,35.6557557 L44.3554231,35.6557557 L44.3554231,36.0181181 L44.3634038,36.0225536 C44.4541731,35.8748317 44.5865769,35.6047473 45.0728269,35.6047473 C45.2735962,35.6047473 45.6031154,35.6849723 45.6743654,36.0600627 L45.6834038,36.0600627 C45.7859038,35.8072382 46.0535962,35.6047473 46.4096538,35.6047473 C46.8692692,35.6047473 47.1265769,35.9078088 47.1265769,36.3249401 L47.1265769,37.8052455 L46.8461923,37.8052455 Z" id="Fill-9" fill="#FFFFFF"></path>
                <path d="M48.7417115,35.832781 C48.2292115,35.832781 48.0679615,36.3384299 48.0679615,36.7301053 C48.0679615,37.1224556 48.2413269,37.6282009 48.7417115,37.6282009 C49.2748846,37.6282009 49.4129615,37.148008 49.4129615,36.7301053 C49.4129615,36.3128775 49.2748846,35.832781 48.7417115,35.832781 Z M47.7883462,34.6435806 L48.0679615,34.6435806 L48.0679615,36.0181085 L48.0762308,36.0181085 C48.1164231,35.9115597 48.3395,35.6047376 48.7848846,35.6047376 C49.4541154,35.6047376 49.7210385,36.0774094 49.7210385,36.7301053 C49.7210385,37.367084 49.4087308,37.8562443 48.7848846,37.8562443 C48.4597885,37.8562443 48.2292115,37.7385102 48.0762308,37.4645689 L48.0679615,37.4645689 L48.0679615,37.8052358 L47.7883462,37.8052358 L47.7883462,34.6435806 Z" id="Fill-11" fill="#FFFFFF"></path>
                <path d="M51.6780673,36.5785167 C51.6780673,36.2034263 51.5182596,35.8327714 51.0995096,35.8327714 C50.6854712,35.8327714 50.4310481,36.2251217 50.4310481,36.5785167 L51.6780673,36.5785167 Z M51.8164327,37.7385006 C51.6201827,37.8141937 51.3672019,37.8562346 51.1562404,37.8562346 C50.4029712,37.8562346 50.1223942,37.3745954 50.1223942,36.7300956 C50.1223942,36.0728678 50.5054712,35.604728 51.0819135,35.604728 C51.7227788,35.604728 51.9868173,36.0938883 51.9868173,36.6708911 L51.9868173,36.8066565 L50.4310481,36.8066565 C50.4310481,37.2619719 50.689125,37.6281912 51.1799904,37.6281912 C51.3844135,37.6281912 51.6826827,37.5486412 51.8164327,37.4684162 L51.8164327,37.7385006 Z" id="Fill-13" fill="#FFFFFF"></path>
                <path d="M52.5221346,36.1359004 C52.5221346,35.8987931 52.5221346,35.8102756 52.5029038,35.6558039 L52.7838654,35.6558039 L52.7838654,36.068307 L52.7935769,36.068307 C52.8953077,35.828307 53.0864615,35.6046991 53.3773269,35.6046991 C53.44425,35.6046991 53.5237692,35.6166557 53.5736731,35.6294801 L53.5736731,35.907857 C53.5149231,35.890597 53.4388654,35.8823045 53.3682885,35.8823045 C52.923,35.8823045 52.8023269,36.3557477 52.8023269,36.7435661 L52.8023269,37.8052937 L52.5221346,37.8052937 L52.5221346,36.1359004 Z" id="Fill-15" fill="#FFFFFF"></path>
                <g id="Group-19" transform="translate(55.000000, 35.542081)">
                    <polygon id="Clip-18" points="0.0712115385 0.0626179188 2.19255769 0.0626179188 2.19255769 2.3141824 0.0712115385 2.3141824"></polygon>
                    <path d="M1.13226923,2.08608116 C1.62303846,2.08608116 1.88544231,1.68620972 1.88544231,1.18808196 C1.88544231,0.690629168 1.62303846,0.29066131 1.13226923,0.29066131 C0.641403846,0.29066131 0.378230769,0.690629168 0.378230769,1.18808196 C0.378230769,1.68620972 0.641403846,2.08608116 1.13226923,2.08608116 M1.13226923,0.0626179188 C1.86765385,0.0626179188 2.19255769,0.602015267 2.19255769,1.18808196 C2.19255769,1.7747272 1.86765385,2.31422097 1.13226923,2.31422097 C0.396788462,2.31422097 0.0712115385,1.7747272 0.0712115385,1.18808196 C0.0712115385,0.602015267 0.396788462,0.0626179188 1.13226923,0.0626179188" id="Fill-17" fill="#FFFFFF"></path>
                </g>
                <path d="M57.91525,35.8823142 L57.4557308,35.8823142 L57.4557308,35.6557172 L57.91525,35.6557172 L57.91525,35.4997027 C57.91525,35.0480514 57.9322692,34.5918682 58.5169808,34.5918682 C58.6063077,34.5918682 58.7260192,34.6045962 58.7803462,34.6338128 L58.7616923,34.8663881 C58.7042885,34.8371716 58.6189038,34.8199116 58.5400577,34.8199116 C58.1556346,34.8199116 58.1957308,35.2123584 58.1957308,35.4688469 L58.1957308,35.6557172 L58.7089038,35.6557172 L58.7089038,35.8823142 L58.1957308,35.8823142 L58.1957308,37.8052069 L57.91525,37.8052069 L57.91525,35.8823142 Z" id="Fill-20" fill="#FFFFFF"></path>
                <path d="M61.6907019,35.4524066 L61.682625,35.4524066 L61.2309904,36.6670631 L62.1421442,36.6670631 L61.6907019,35.4524066 Z M61.3479135,34.8626758 L62.0520481,34.8626758 L63.2734904,37.8052551 L62.5821442,37.8052551 L62.3150288,37.1315388 L61.0534904,37.1315388 L60.7810865,37.8052551 L60.135125,37.8052551 L61.3479135,34.8626758 Z" id="Fill-22" fill="#FFFFFF"></path>
                <path d="M65.3454808,35.4020731 C65.1489423,35.3218481 64.9319231,35.2760466 64.7132692,35.2760466 C64.4991346,35.2760466 64.2226923,35.3638891 64.2226923,35.6849819 C64.2226923,36.1951627 65.5871154,35.9806187 65.5871154,36.9664604 C65.5871154,37.6116352 65.0464423,37.8562636 64.4179808,37.8562636 C64.0790385,37.8562636 63.9288462,37.8142226 63.6211538,37.742965 L63.6789423,37.2109924 C63.8925962,37.3205303 64.1377885,37.3925593 64.3816346,37.3925593 C64.6188462,37.3925593 64.935,37.2793572 64.935,37.0137083 C64.935,36.4517477 63.5717308,36.684323 63.5717308,35.7104379 C63.5717308,35.0509924 64.1102885,34.8116673 64.6588462,34.8116673 C64.9274038,34.8116673 65.1757692,34.8454158 65.4034615,34.9174448 L65.3454808,35.4020731 Z" id="Fill-24" fill="#FFFFFF"></path>
                <polygon id="Fill-26" fill="#FFFFFF" points="66.7185385 35.3255605 65.8265192 35.3255605 65.8265192 34.862724 68.2341154 34.862724 68.2341154 35.3255605 67.3424808 35.3255605 67.3424808 37.8052069 66.7185385 37.8052069"></polygon>
                <path d="M69.2009327,36.1186597 L69.406125,36.1186597 C69.7140096,36.1186597 70.0666058,36.0773901 70.0666058,35.7104958 C70.0666058,35.3556545 69.7185288,35.3255701 69.406125,35.3255701 L69.2009327,35.3255701 L69.2009327,36.1186597 Z M68.5777596,34.8627336 L69.2516058,34.8627336 C69.9192019,34.8627336 70.7178558,34.8409417 70.7178558,35.658716 C70.7178558,36.0061326 70.4718942,36.2919341 70.0745865,36.343039 L70.0745865,36.351235 C70.2441058,36.3631916 70.3422788,36.5229667 70.4054519,36.6542965 L70.903625,37.8052166 L70.2100673,37.8052166 L69.8352596,36.8868718 C69.7450673,36.6670245 69.6663173,36.5822676 69.4016058,36.5822676 L69.2009327,36.5822676 L69.2009327,37.8052166 L68.5777596,37.8052166 L68.5777596,34.8627336 Z" id="Fill-28" fill="#FFFFFF"></path>
                <path d="M72.5893654,35.4524066 L72.5811923,35.4524066 L72.1307115,36.6670631 L73.0386923,36.6670631 L72.5893654,35.4524066 Z M72.2467692,34.8626758 L72.9499423,34.8626758 L74.1724423,37.8052551 L73.4811923,37.8052551 L73.2133077,37.1315388 L71.9511923,37.1315388 L71.6799423,37.8052551 L71.0337885,37.8052551 L72.2467692,34.8626758 Z" id="Fill-30" fill="#FFFFFF"></path>
            </g>
        </g>
    </g>
</svg>